{
  "status": "Serving Cell data has loaded successfully. ",
  "succeed": true,
  "data": {
    "count": 136,
    "next": "https://api.pestelecom.ir/v1/pioneer/serving-cell-tab-view?page=2&page_size=10",
    "previous": null,
    "serving_cell_info": [
      {
        "node_id": 1888,
        "technology": 4,
        "band": null,
        "ul_bw": 15,
        "dl_bw": 15,
        "code": 276,
        "plmn_id": 43211,
        "lac": 41212,
        "rac": -1,
        "cell_id": 23054101,
        "info": null,
        "location_id": 70252124444688380,
        "lifetime": 2256413,
        "source": 3,
        "frame_type": 0,
        "sim_id": null,
        "param1": null,
        "param2": null,
        "param3": null,
        "param4": null,
        "param5": null,
        "timestamp": "2022-08-31T15:36:30.828000",
        "freq_info": {
          "band": "Band 1 (IMT 2100)",
          "dl_freq": 2162.5,
          "ul_freq": 1972.5,
          "dl_arfcn": 525,
          "ul_arfcn": 18525
        }
      },
      {
        "node_id": 1888,
        "technology": 4,
        "band": null,
        "ul_bw": 15,
        "dl_bw": 15,
        "code": 276,
        "plmn_id": 43211,
        "lac": 41212,
        "rac": -1,
        "cell_id": 23054101,
        "info": null,
        "location_id": 70252124444688380,
        "lifetime": 2251325,
        "source": 3,
        "frame_type": 0,
        "sim_id": null,
        "param1": null,
        "param2": null,
        "param3": null,
        "param4": null,
        "param5": null,
        "timestamp": "2022-08-31T14:58:54.415000",
        "freq_info": {
          "band": "Band 1 (IMT 2100)",
          "dl_freq": 2162.5,
          "ul_freq": 1972.5,
          "dl_arfcn": 525,
          "ul_arfcn": 18525
        }
      },
      {
        "node_id": 1888,
        "technology": 4,
        "band": null,
        "ul_bw": 15,
        "dl_bw": 15,
        "code": 276,
        "plmn_id": 43211,
        "lac": 41212,
        "rac": -1,
        "cell_id": 23054101,
        "info": null,
        "location_id": 70252124444688380,
        "lifetime": 2256910,
        "source": 3,
        "frame_type": 0,
        "sim_id": null,
        "param1": null,
        "param2": null,
        "param3": null,
        "param4": null,
        "param5": null,
        "timestamp": "2022-08-31T14:21:23.091000",
        "freq_info": {
          "band": "Band 1 (IMT 2100)",
          "dl_freq": 2162.5,
          "ul_freq": 1972.5,
          "dl_arfcn": 525,
          "ul_arfcn": 18525
        }
      },
      {
        "node_id": 1888,
        "technology": 4,
        "band": null,
        "ul_bw": 15,
        "dl_bw": 15,
        "code": 276,
        "plmn_id": 43211,
        "lac": 41212,
        "rac": -1,
        "cell_id": 23054101,
        "info": null,
        "location_id": 70252124444688380,
        "lifetime": 2251797,
        "source": 3,
        "frame_type": 0,
        "sim_id": null,
        "param1": null,
        "param2": null,
        "param3": null,
        "param4": null,
        "param5": null,
        "timestamp": "2022-08-31T13:43:46.181000",
        "freq_info": {
          "band": "Band 1 (IMT 2100)",
          "dl_freq": 2162.5,
          "ul_freq": 1972.5,
          "dl_arfcn": 525,
          "ul_arfcn": 18525
        }
      },
      {
        "node_id": 1888,
        "technology": 4,
        "band": null,
        "ul_bw": 15,
        "dl_bw": 15,
        "code": 276,
        "plmn_id": 43211,
        "lac": 41212,
        "rac": -1,
        "cell_id": 23054101,
        "info": null,
        "location_id": 70252124444688380,
        "lifetime": 5084,
        "source": 3,
        "frame_type": 0,
        "sim_id": null,
        "param1": null,
        "param2": null,
        "param3": null,
        "param4": null,
        "param5": null,
        "timestamp": "2022-08-31T13:06:14.383000",
        "freq_info": {
          "band": "Band 1 (IMT 2100)",
          "dl_freq": 2162.5,
          "ul_freq": 1972.5,
          "dl_arfcn": 525,
          "ul_arfcn": 18525
        }
      },
      {
        "node_id": 1888,
        "technology": 3,
        "band": -1,
        "ul_bw": 5,
        "dl_bw": 5,
        "code": 66,
        "plmn_id": 43211,
        "lac": 31212,
        "rac": 50,
        "cell_id": 4270301,
        "info": "",
        "location_id": 70252124444688380,
        "lifetime": 1768718,
        "source": 1,
        "frame_type": 16679,
        "sim_id": null,
        "param1": null,
        "param2": null,
        "param3": null,
        "param4": null,
        "param5": null,
        "timestamp": "2022-08-31T13:06:07.739000",
        "freq_info": {
          "band": "Band 1 (IMT (2100))",
          "dl_freq": 2152.4,
          "ul_freq": 1962.4,
          "dl_arfcn": 10762,
          "ul_arfcn": 9812
        }
      },
      {
        "node_id": 1888,
        "technology": 4,
        "band": null,
        "ul_bw": 15,
        "dl_bw": 15,
        "code": 276,
        "plmn_id": 43211,
        "lac": 41212,
        "rac": -1,
        "cell_id": 23054101,
        "info": null,
        "location_id": 70252124444688380,
        "lifetime": 2256783,
        "source": 3,
        "frame_type": 0,
        "sim_id": null,
        "param1": null,
        "param2": null,
        "param3": null,
        "param4": null,
        "param5": null,
        "timestamp": "2022-08-31T12:36:39.022000",
        "freq_info": {
          "band": "Band 1 (IMT 2100)",
          "dl_freq": 2162.5,
          "ul_freq": 1972.5,
          "dl_arfcn": 525,
          "ul_arfcn": 18525
        }
      },
      {
        "node_id": 1888,
        "technology": 4,
        "band": null,
        "ul_bw": 15,
        "dl_bw": 15,
        "code": 276,
        "plmn_id": 43211,
        "lac": 41212,
        "rac": -1,
        "cell_id": 23054101,
        "info": null,
        "location_id": 70252124444688380,
        "lifetime": 2256747,
        "source": 3,
        "frame_type": 0,
        "sim_id": null,
        "param1": null,
        "param2": null,
        "param3": null,
        "param4": null,
        "param5": null,
        "timestamp": "2022-08-31T11:59:02.237000",
        "freq_info": {
          "band": "Band 1 (IMT 2100)",
          "dl_freq": 2162.5,
          "ul_freq": 1972.5,
          "dl_arfcn": 525,
          "ul_arfcn": 18525
        }
      },
      {
        "node_id": 1888,
        "technology": 4,
        "band": null,
        "ul_bw": 15,
        "dl_bw": 15,
        "code": 276,
        "plmn_id": 43211,
        "lac": 41212,
        "rac": -1,
        "cell_id": 23054101,
        "info": null,
        "location_id": 70252124444688380,
        "lifetime": 2256996,
        "source": 3,
        "frame_type": 0,
        "sim_id": null,
        "param1": null,
        "param2": null,
        "param3": null,
        "param4": null,
        "param5": null,
        "timestamp": "2022-08-31T11:21:25.492000",
        "freq_info": {
          "band": "Band 1 (IMT 2100)",
          "dl_freq": 2162.5,
          "ul_freq": 1972.5,
          "dl_arfcn": 525,
          "ul_arfcn": 18525
        }
      },
      {
        "node_id": 1888,
        "technology": 4,
        "band": null,
        "ul_bw": 15,
        "dl_bw": 15,
        "code": 276,
        "plmn_id": 43211,
        "lac": 41212,
        "rac": -1,
        "cell_id": 23054101,
        "info": null,
        "location_id": 70252124444688380,
        "lifetime": 2256775,
        "source": 3,
        "frame_type": 0,
        "sim_id": null,
        "param1": null,
        "param2": null,
        "param3": null,
        "param4": null,
        "param5": null,
        "timestamp": "2022-08-31T10:43:48.496000",
        "freq_info": {
          "band": "Band 1 (IMT 2100)",
          "dl_freq": 2162.5,
          "ul_freq": 1972.5,
          "dl_arfcn": 525,
          "ul_arfcn": 18525
        }
      }
    ]
  }
}
